{
  "findOndWiseFlightCombinations - Return - Non connections" : {
    "transaction" : "findOndWiseFlightCombinations - Return - Non connections",
    "sampleCount" : 436,
    "errorCount" : 26,
    "errorPct" : 5.9633026,
    "meanResTime" : 8878.639908256886,
    "minResTime" : 11.0,
    "maxResTime" : 60012.0,
    "pct1ResTime" : 31041.00000000002,
    "pct2ResTime" : 60002.0,
    "pct3ResTime" : 60005.0,
    "throughput" : 1.2037814197994434,
    "receivedKBytesPerSec" : 8.422700572141295,
    "sentKBytesPerSec" : 4.862148390908689
  },
  "findOndWiseFlightCombinations - Oneway - Connections" : {
    "transaction" : "findOndWiseFlightCombinations - Oneway - Connections",
    "sampleCount" : 654,
    "errorCount" : 0,
    "errorPct" : 0.0,
    "meanResTime" : 1370.3302752293578,
    "minResTime" : 8.0,
    "maxResTime" : 15138.0,
    "pct1ResTime" : 3158.5,
    "pct2ResTime" : 6662.75,
    "pct3ResTime" : 12609.750000000005,
    "throughput" : 2.0195968835211393,
    "receivedKBytesPerSec" : 38.937593052192994,
    "sentKBytesPerSec" : 7.492625547360165
  },
  "findOndWiseFlightCombinations- Oneway - Non connections" : {
    "transaction" : "findOndWiseFlightCombinations- Oneway - Non connections",
    "sampleCount" : 1089,
    "errorCount" : 0,
    "errorPct" : 0.0,
    "meanResTime" : 433.54269972451766,
    "minResTime" : 5.0,
    "maxResTime" : 4210.0,
    "pct1ResTime" : 880.0,
    "pct2ResTime" : 1343.0,
    "pct3ResTime" : 2674.299999999999,
    "throughput" : 3.412787454480498,
    "receivedKBytesPerSec" : 15.789617073064678,
    "sentKBytesPerSec" : 12.661308144112708
  },
  "Total" : {
    "transaction" : "Total",
    "sampleCount" : 2179,
    "errorCount" : 26,
    "errorPct" : 1.1932079,
    "meanResTime" : 2404.502524093623,
    "minResTime" : 5.0,
    "maxResTime" : 60012.0,
    "pct1ResTime" : 4099.0,
    "pct2ResTime" : 10751.0,
    "pct3ResTime" : 60002.0,
    "throughput" : 6.016146132438044,
    "receivedKBytesPerSec" : 57.14662604709657,
    "sentKBytesPerSec" : 22.71583349180131
  }
}